[gd_scene load_steps=3 format=3]

[ext_resource type="Script" path="res://animal.gd" id="1_0qxk7"]
[ext_resource type="Texture2D" uid="uid://dh6qovwsbt03f" path="res://assets/hog.png" id="2_pr1sw"]

[node name="hog" type="Node2D"]
position = Vector2(-32, -32)
script = ExtResource("1_0qxk7")

[node name="animal" type="Sprite2D" parent="."]
texture = ExtResource("2_pr1sw")
