; Engine configuration file.
; It's best edited using the editor UI and not directly,
; since the parameters that go here are not all obvious.
;
; Format:
;   [section] ; section goes between []
;   param=value ; assign values to parameters

config_version=5

[application]

config/name="Soothing Winds of Spring"
config/description="Small relaxing game about cozy times in spring"
run/main_scene="res://main.tscn"
config/features=PackedStringArray("4.0", "Mobile")
boot_splash/image="res://assets/spring512.png"
config/icon="res://assets/spring512.png"

[display]

window/size/viewport_width=1280
window/size/viewport_height=720
window/stretch/mode="canvas_items"
window/stretch/aspect="expand"

[rendering]

renderer/rendering_method="mobile"
